…
Result:
	# A tibble: 52 × 7
	   GEOID NAME          income_estimate rent_estimate income_moe rent_moe number
	   <chr> <chr>                   <dbl>         <dbl>      <dbl>    <dbl>  <dbl>
	 1 56    Wyoming                 30854           828        342       11     50
	 2 55    Wisconsin               29868           813        135        3     50
	 3 54    West Virginia           23707           681        203        6     50
	 4 53    Washington              32318          1120        113        4     50
	 5 51    Virginia                32545          1166        202        5     50
	 6 50    Vermont                 29351           945        361       11     50
	 7 49    Utah                    27928           948        239        6     50
	 8 48    Texas                   28063           952        110        2     50
	 9 47    Tennessee               25453           808        102        4     50
	10 46    South Dakota            28821           696        276        7     50
	# … with 42 more rows
	# ℹ Use `print(n = ...)` to see more rows
…
