Build approved packages and functions tibble — build_approved • logrx
…
    For more details see the help vignette:

vignette("approved", package = "logrx")

    Examples

approved_pkgs <- list(
  base = c("library", "mean"),
  dplyr = "All"
)

# build and return
build_approved(approved_pkgs)
#> # A tibble: 290 × 2
#>    function_name library      
#>    <chr>         <chr>        
#>  1 library       package:base 
#>  2 mean          package:base 
#>  3 rows_upsert   package:dplyr
#>  4 src_local     package:dplyr
#>  5 db_analyze    package:dplyr
#>  6 n_groups      package:dplyr
#>  7 distinct      package:dplyr
#>  8 summarise_    package:dplyr
#>  9 group_split   package:dplyr
#> 10 group_by_if   package:dplyr
#> # … with 280 more rows
…
