Logging Unapproved Package and Function Use • logrx
…
approved_pkgs <- list(base = "mean",
                      dplyr = "All")
approved_pkgs
#> $base
#> [1] "mean"
#> 
#> $dplyr
#> [1] "All"

2. Build approved.rds

Pass the named list through build_approved() to build your tibble. We create a temp directory to save this for illustration.

build_approved(approved_pkgs)
#> # A tibble: 294 × 2
#>    function_name         library      
#>    <chr>                 <chr>        
#>  1 mean                  package:base 
#>  2 slice_max             package:dplyr
#>  3 expr                  package:dplyr
#>  4 src                   package:dplyr
#>  5 db_desc               package:dplyr
#>  6 group_by_drop_default package:dplyr
#>  7 db_commit             package:dplyr
#>  8 coalesce              package:dplyr
#>  9 data_frame            package:dplyr
#> 10 summarize_if          package:dplyr
#> # ℹ 284 more rows
…
